60
0 9.5 21.5
1 27 34
0 23.5 19
1 20 34
1 13 34
1 27 31.5
0 13 19
0 2.5 19
1 16.5 34
1 13 31.5
1 23.5 34
0 16.5 19
1 23.5 31.5
1 16.5 31.5
0 27 19
0 20 19
0 9.5 19
0 37.5 19
0 34 19
0 30.5 19
0 6 19
2 2.5 26.5 rspeed=-360
2 9.5 26.5 rspeed=-360
2 13 26.5 rspeed=-360
2 6 26.5 rspeed=-360
2 20 26.5 r=3 rspeed=70
2 20 26.5 r=-3 rspeed=70
2 27 26.5 rspeed=360
2 37.5 26.5 rspeed=360
2 30.5 26.5 rspeed=360
2 34 26.5 rspeed=360
2 2.5 11.5 rspeed=-360
2 9.5 11.5 rspeed=-360
2 13 11.5 rspeed=-360
2 6 11.5 rspeed=-360
2 20 11.5 r=3 rspeed=-70
2 20 11.5 r=-3 rspeed=-70
2 27 11.5 rspeed=360
2 37.5 11.5 rspeed=360
2 30.5 11.5 rspeed=360
2 34 11.5 rspeed=360
0 6 21.5
0 2.5 21.5
0 2.5 16.5
0 6 16.5
0 9.5 16.5
0 13 16.5
0 13 21.5
0 27 21.5
0 30.5 21.5
0 34 21.5
0 37.5 16.5
0 37.5 21.5
0 34 16.5
0 30.5 16.5
0 27 16.5
1 27 36.5
1 23.5 36.5
1 16.5 36.5
1 13 36.5
