45
0 13 26.5
0 6 26.5
0 27 26.5
0 23.5 26.5
0 13 34
0 30.5 26.5
0 9.5 26.5
0 20 26.5
0 34 29
0 16.5 29
0 23.5 29
0 30.5 29
0 27 29
0 16.5 26.5
0 34 26.5
0 20 29
0 9.5 29
0 6 29
0 13 29
0 6 31.5
0 9.5 34
0 23.5 34
0 30.5 31.5
0 6 34
0 16.5 34
0 23.5 31.5
0 20 34
0 34 34
0 27 34
0 30.5 34
0 9.5 36.5
0 34 31.5
0 27 31.5
0 16.5 31.5
0 20 31.5
0 9.5 31.5
0 13 31.5
0 6 36.5
0 16.5 36.5
0 13 36.5
0 30.5 36.5
0 23.5 36.5
0 34 36.5
0 20 36.5
0 27 36.5
