66
1 9.5 14
0 20 14
1 13 14
1 27 14
1 30.5 14
0 16.5 14
0 23.5 14
0 20 16.5
0 2.5 16.5
0 16.5 16.5
0 13 16.5
0 9.5 16.5
0 6 16.5
0 23.5 16.5
0 27 16.5
0 34 16.5
0 37.5 16.5
1 37.5 14
1 2.5 14
0 23.5 19
0 16.5 29
0 30.5 16.5
0 20 19
0 20 34
0 16.5 19
0 16.5 31.5
0 2.5 31.5
1 34 14
0 16.5 34
0 23.5 34
0 20 29
0 23.5 31.5
0 20 31.5
0 34 31.5
0 30.5 31.5
0 6 31.5
0 23.5 29
0 27 31.5
1 6 34
0 13 31.5
0 37.5 31.5
1 9.5 29
0 9.5 31.5
1 27 34
1 2.5 29
1 13 34
1 6 29
1 2.5 34
1 6 14
1 13 29
1 30.5 34
1 9.5 34
1 30.5 29
1 37.5 34
1 6 19
1 34 34
1 34 29
1 37.5 29
1 37.5 19
1 34 19
1 27 29
1 27 19
1 30.5 19
1 9.5 19
1 13 19
1 2.5 19
