54
2 9.5 16.5
0 37.5 19
1 2.5 34
1 16.5 34
1 13 34
2 9.5 29
1 20 34
1 23.5 19
1 20 19
1 16.5 19
1 13 19
1 9.5 19
1 6 19
1 2.5 19
0 2.5 26.5
0 34 19
1 9.5 26.5
1 13 26.5
1 16.5 26.5
1 20 26.5
1 23.5 26.5
1 27 26.5
1 30.5 26.5
1 34 26.5
1 37.5 26.5
0 37.5 34
2 30.5 16.5
1 30.5 34
1 27 34
1 23.5 34
2 20 9
1 20 11.5
1 23.5 11.5
1 27 11.5
1 30.5 11.5
1 9.5 34
1 6 34
0 34 34
2 20 36.5
1 9.5 11.5
1 13 11.5
1 16.5 11.5
2 9.5 36.5
0 2.5 11.5
0 6 26.5
1 34 11.5
1 37.5 11.5
1 30.5 19
1 27 19
2 30.5 36.5
2 30.5 29
2 9.5 9
2 30.5 9
0 6 11.5
