93
1 34 34
1 34 36.5
2 2.5 14
1 27 21.5
0 27 34
2 30.5 6.5
2 20 6.5
2 20 46.5
0 23.5 31.5
0 9.5 14
0 13 14
0 16.5 14
0 20 14
0 23.5 14
0 27 14
0 30.5 14
0 30.5 16.5
0 27 16.5
0 23.5 16.5
0 20 16.5
0 16.5 31.5
0 20 31.5
0 20 34
0 16.5 34
1 34 16.5
1 34 19
0 9.5 36.5
0 13 36.5
0 16.5 36.5
0 20 36.5
0 23.5 36.5
0 27 36.5
0 30.5 36.5
0 34 39
0 30.5 39
0 27 39
0 23.5 39
0 20 39
0 16.5 39
0 13 39
0 9.5 39
0 6 39
1 6 36.5
1 6 34
1 6 31.5
1 6 29
1 6 26.5
1 6 24
1 6 21.5
1 6 19
1 6 16.5
1 13 21.5
1 13 24
1 13 26.5
1 13 29
1 13 31.5
1 27 31.5
1 27 29
1 27 26.5
1 27 24
1 34 29
2 30.5 46.5
2 37.5 39
2 9.5 6.5
2 9.5 46.5
2 2.5 39
2 30.5 19
2 30.5 34
0 16.5 16.5
0 13 16.5
0 9.5 16.5
0 6 14
0 34 14
0 27 19
0 23.5 19
0 20 19
0 16.5 19
0 13 19
0 16.5 21.5
0 20 21.5
0 23.5 21.5
0 20 24
2 20 26.5
0 20 29
0 23.5 34
0 13 34
1 34 21.5
2 37.5 14
1 34 24
1 34 26.5
1 34 31.5
2 9.5 34
2 9.5 19
