104
0 2.5 6.5
0 13 19
0 20 21.5
0 16.5 9
0 16.5 14
0 20 31.5
0 13 11.5
0 23.5 14
0 16.5 21.5
0 23.5 16.5
0 13 14
0 16.5 19
0 13 16.5
0 20 29
0 20 14
0 20 9
0 16.5 16.5
0 16.5 11.5
0 30.5 36.5
0 30.5 34
0 27 39
0 30.5 39
0 16.5 31.5
0 23.5 31.5
0 23.5 29
0 27 31.5
0 23.5 44
0 23.5 41.5
0 13 36.5
0 20 41.5
0 16.5 41.5
0 20 16.5
0 20 19
0 23.5 11.5
0 20 11.5
0 9.5 11.5
0 16.5 39
0 13 34
0 16.5 34
0 13 39
0 16.5 36.5
0 20 34
0 27 34
0 27 36.5
0 20 36.5
1 27 6.5
0 27 41.5
1 27 9
1 23.5 21.5
0 20 44
0 27 14
0 9.5 14
0 23.5 39
0 23.5 34
0 23.5 36.5
0 20 39
1 23.5 6.5
1 30.5 44
1 9.5 6.5
1 27 19
1 27 21.5
1 30.5 41.5
1 27 44
1 16.5 44
1 13 44
1 13 41.5
2 34 14
2 2.5 14
2 37.5 14
2 37.5 36.5
2 20 24
2 6 36.5
1 13 21.5
1 9.5 9
1 9.5 21.5
1 9.5 19
1 13 6.5
0 27 11.5
0 37.5 6.5
0 37.5 44
0 27 16.5
0 16.5 6.5
0 20 6.5
0 23.5 9
0 23.5 19
0 13 9
0 9.5 16.5
1 30.5 31.5
1 13 31.5
1 16.5 29
1 13 29
1 30.5 29
1 27 29
2 34 44
0 2.5 44
2 23.5 26.5
2 2.5 36.5
2 20 26.5
2 16.5 24
2 30.5 6.5
2 34 6.5
2 6 6.5
2 9.5 44
2 6 44
