95
2 30.5 29
0 34 19
0 30.5 19
3 23.5 34
0 23.5 36.5
3 20 34
1 6 14
1 6 11.5
1 6 9
1 20 9
1 13 11.5
2 9.5 24
3 16.5 34
0 16.5 31.5
1 23.5 9
3 2.5 29
2 16.5 29
1 16.5 9
2 13 29
1 27 9
2 9.5 29
2 20 29
3 2.5 31.5
3 9.5 34
0 23.5 31.5
2 37.5 29
0 16.5 36.5
0 21.75 21.5
0 14.75 21.5
0 20 36.5
3 13 34
0 18.25 21.5
2 34 29
0 13 16.5
0 16.5 16.5
0 23.5 16.5
0 20 16.5
0 27 16.5
0 30.5 16.5
0 32.25 21.5
0 4.25 21.5
0 9.5 19
0 16.5 19
0 13 19
0 9.5 16.5
0 27 19
0 7.75 21.5
0 11.25 21.5
0 23.5 19
0 37.5 19
0 25.25 21.5
0 28.75 21.5
0 34 16.5
0 37.5 16.5
1 30.5 9
1 16.5 11.5
1 9.5 11.5
1 34 11.5
1 27 11.5
1 23.5 11.5
1 20 11.5
1 30.5 11.5
1 23.5 14
1 37.5 14
1 37.5 11.5
1 34 14
1 30.5 14
1 13 14
1 16.5 14
1 27 14
1 9.5 14
1 20 14
2 16.5 24
0 2.5 16.5
0 2.5 19
2 6 29
0 6 16.5
0 6 19
2 20 24
2 13 24
2 6 24
2 23.5 29
3 2.5 26.5
2 2.5 24
3 2.5 34
3 6 34
2 27 29
0 20 31.5
0 20 19
1 6 6.5
1 13 9
1 9.5 9
1 34 9
1 37.5 9
0 35.75 21.5
