73
0 2.5 41.5
0 9.5 46.5
0 6 39
0 9.5 41.5
0 6 44
1 13 44
1 37.5 26.5
1 13 49
1 34 21.5
1 13 41.5
1 20 46.5
1 13 39
0 13 6.5
0 20 6.5
1 30.5 26.5
1 23.5 11.5
1 20 41.5
1 16.5 44
0 27 46.5
0 23.5 39
1 20 39
0 23.5 49
0 30.5 49
0 27 44
0 27 39
0 30.5 39
0 27 41.5
1 9.5 26.5
1 13 31.5
1 9.5 24
1 9.5 29
1 30.5 29
1 16.5 29
1 34 31.5
1 16.5 26.5
0 27 29
1 16.5 21.5
1 16.5 24
1 13 24
1 13 21.5
1 30.5 24
0 27 21.5
1 30.5 11.5
1 27 6.5
1 30.5 14
1 23.5 9
1 27 16.5
1 23.5 14
0 6 49
0 27 49
0 20 31.5
0 23.5 21.5
0 27 26.5
0 27 31.5
0 13 14
1 13 46.5
0 20 21.5
0 13 9
0 13 11.5
0 13 16.5
1 30.5 9
0 16.5 6.5
1 16.5 49
1 37.5 24
0 20 29
1 37.5 29
0 20 26.5
0 20 24
0 27 24
0 2.5 49
0 2.5 46.5
0 2.5 39
0 2.5 44
